<?xml version='1.0' encoding='UTF-8'?>
<!-- Created with Inkscape (http://www.inkscape.org/) and export_objects.py -->
<svg xmlns:cc="http://creativecommons.org/ns#" xmlns:dc="http://purl.org/dc/elements/1.1/" xmlns:inkscape="http://www.inkscape.org/namespaces/inkscape" xmlns:rdf="http://www.w3.org/1999/02/22-rdf-syntax-ns#" xmlns:sodipodi="http://sodipodi.sourceforge.net/DTD/sodipodi-0.dtd" xmlns:xlink="http://www.w3.org/1999/xlink" xmlns="http://www.w3.org/2000/svg" version="1.1" id="svg1" width="16" height="16" viewBox="0 0 16 16">
<sodipodi:namedview 
    objecttolerance="10" 
    gridtolerance="10" 
    guidetolerance="10" 
    id="namedview" 
    showgrid="true" 
    inkscape:zoom="27.166187"
    inkscape:cx="7.4837792"
    inkscape:cy="8.9906751"
    inkscape:window-x="0" 
    inkscape:window-y="27"> 
    <inkscape:grid type="xygrid" id="grid"/>
  </sodipodi:namedview>
  <metadata
     id="metadata1906">
    <rdf:RDF>
      <cc:Work
         rdf:about="">
        <dc:format>image/svg+xml</dc:format>
        <dc:type
           rdf:resource="http://purl.org/dc/dcmitype/StillImage" />
        <cc:license
           rdf:resource="http://creativecommons.org/publicdomain/zero/1.0/" />
        <dc:title>fe Editor new Icons proposal</dc:title>
        <dc:date>13 Nov 2018</dc:date>
        <dc:creator>
          <cc:Agent>
            <dc:title>Ramón Miranda</dc:title>
          </cc:Agent>
        </dc:creator>
        <dc:rights>
          <cc:Agent>
            <dc:title>see the license tab</dc:title>
          </cc:Agent>
        </dc:rights>
        <dc:subject>
          <rdf:Bag>
            <rdf:li>icon ui</rdf:li>
          </rdf:Bag>
        </dc:subject>
        <dc:description>This is a little contribution with Inkscape Project
Ramon Miranda  www.ramonmiranda.com (design and SVG file)
Jabiertxo (SVG stuff to integrate them in UI)</dc:description>
        <dc:publisher>
          <cc:Agent>
            <dc:title></dc:title>
          </cc:Agent>
        </dc:publisher>
        <dc:identifier></dc:identifier>
        <dc:source />
        <dc:relation />
        <dc:language>-</dc:language>
        <dc:coverage />
        <dc:contributor>
          <cc:Agent>
            <dc:title>Ramon Miranda
Jabier Arraiza</dc:title>
          </cc:Agent>
        </dc:contributor>
      </cc:Work>
      <cc:License
         rdf:about="http://creativecommons.org/publicdomain/zero/1.0/">
        <cc:permits
           rdf:resource="http://creativecommons.org/ns#Reproduction" />
        <cc:permits
           rdf:resource="http://creativecommons.org/ns#Distribution" />
        <cc:permits
           rdf:resource="http://creativecommons.org/ns#DerivativeWorks" />
      </cc:License>
    </rdf:RDF>
  </metadata>
  <g inkscape:groupmode="layer"
     id="layer"
     inkscape:label="feSpecularLighting">
    <path 
       id="rect22048" 
       d="M 0,0 H 16 V 16 H 0 Z" 
       style="opacity:0;fill:none" />
    <path
       style="opacity:1;fill:#000000"
       d="M 7.8562599,14.904595 C 5.9116664,14.748894 4.2301934,13.839773 3.1001663,12.333119 2.437924,11.450165 2.0212584,10.40359 1.8939144,9.3032893 1.8524297,8.9448309 1.8517073,8.2747696 1.8924197,7.9349923 2.0266082,6.815693 2.4461388,5.7760249 3.1127343,4.910811 3.1825813,4.820151 3.2397296,4.7416305 3.2397296,4.7363212 c 0,-0.00531 -0.2647277,-0.00965 -0.5882786,-0.00965 H 2.0631728 V 4.4474845 4.1683007 H 2.9229857 3.7827988 L 3.898023,4.0616207 C 4.0325602,3.9370618 4.2705072,3.7425515 4.3909381,3.6586858 l 0.084327,-0.058724 6.228e-4,-0.9821291 6.228e-4,-0.982129 h 0.2791827 0.2791825 v 0.7976684 c 0,0.4387178 0.00287,0.7976681 0.00631,0.7976681 0.00349,0 0.122374,-0.057619 0.2642291,-0.1280415 1.2803338,-0.6356249 2.7182295,-0.8222133 4.14456,-0.5378185 1.657813,0.3305519 3.143758,1.3256289 4.077043,2.730233 0.574726,0.8649672 0.92649,1.8524751 1.021373,2.8673054 0.03416,0.3653894 0.01391,1.1230434 -0.03929,1.4696861 -0.264721,1.7249763 -1.243875,3.2575933 -2.694047,4.2168493 -0.835585,0.552722 -1.731464,0.883165 -2.761925,1.018733 -0.2290659,0.03014 -0.9875181,0.05334 -1.1965049,0.03661 z m 0.5085162,-0.865714 c 1.3755101,-0.09567 2.6298489,-0.659991 3.5890789,-1.614714 0.762089,-0.758513 1.285472,-1.707496 1.503514,-2.7261353 l 0.04783,-0.223451 -0.192165,-0.1090573 c -0.144857,-0.082213 -0.195789,-0.1026021 -0.2069,-0.08283 -0.0081,0.014423 -0.06463,0.1505903 -0.125625,0.3025893 -0.286357,0.7136283 -0.707202,1.3571713 -1.254893,1.9189463 -0.389991,0.400024 -0.708335,0.658565 -1.14594,0.930671 -1.2372665,0.769345 -2.747127,1.084835 -4.1891332,0.875333 -0.1151619,-0.01673 -0.2218601,-0.03225 -0.2371062,-0.03448 -0.018516,-0.0027 -0.049986,0.06193 -0.094728,0.194592 -0.077576,0.23002 -0.077589,0.230093 -0.033668,0.230093 0.018329,0 0.047495,0.01197 0.064809,0.0266 0.037374,0.03158 0.582287,0.174013 0.8790076,0.229765 0.115162,0.02164 0.3080992,0.04926 0.4287418,0.0614 0.4177741,0.042 0.6036239,0.04597 0.9671772,0.02069 z m 1.6759169,-1.134966 c -0.02388,-0.03353 -0.03608,-0.06069 -0.0271,-0.06034 0.02187,8.34e-4 0.09264,0.0992 0.08028,0.111565 -0.0053,0.0053 -0.0293,-0.01768 -0.05317,-0.05122 z m 1.056021,-0.649332 c -0.02572,-0.02738 -0.03762,-0.04977 -0.02644,-0.04977 0.02547,0 0.09621,0.07654 0.08297,0.08978 -0.0053,0.0053 -0.03081,-0.01263 -0.05654,-0.04 z M 5.0345086,7.7378655 V 7.4586817 H 4.755326 4.4761434 V 7.7378655 8.0170493 H 4.755326 5.0345086 Z m 0,-1.7648409 V 4.7266684 H 6.2708975 7.50728 V 4.4474845 4.1683007 H 5.9917087 4.4761434 V 5.6938408 7.2193807 H 4.755326 5.0345086 Z M 8.324892,4.4474845 V 4.1683007 H 8.0556742 7.7864626 V 4.4474845 4.7266684 H 8.0556742 8.324892 Z M 1.2389405,4.7133734 C 1.2316288,4.7060618 1.2256437,4.5804293 1.2256437,4.4341896 V 4.1683007 H 1.5048263 1.7840089 V 4.4474845 4.7266684 H 1.5181231 c -0.1462397,0 -0.2718709,-0.00599 -0.2791826,-0.013295 z M 4.4761434,1.0873073 V 0.81809385 H 4.755326 5.0345086 V 1.0873073 1.3565201 H 4.755326 4.4761434 Z"
       id="path8690" />
   </g>
</svg>
