<?xml version="1.0" encoding="UTF-8" standalone="no"?>
<!-- Created with Inkscape (http://www.inkscape.org/) and export_objects.py -->

<svg xmlns:dc="http://purl.org/dc/elements/1.1/" xmlns:cc="http://creativecommons.org/ns#" xmlns:rdf="http://www.w3.org/1999/02/22-rdf-syntax-ns#" xmlns:svg="http://www.w3.org/2000/svg" xmlns="http://www.w3.org/2000/svg" xmlns:sodipodi="http://sodipodi.sourceforge.net/DTD/sodipodi-0.dtd" xmlns:inkscape="http://www.inkscape.org/namespaces/inkscape" version="1.1" id="svg1" width="16" height="16" viewBox="0 0 16 16" sodipodi:docname="infopop-symbolic.svg" inkscape:version="0.92.4 (5da689c313, 2019-01-14)">
<defs id="defs9" />
<sodipodi:namedview objecttolerance="10" gridtolerance="10" guidetolerance="10" id="namedview" showgrid="true" inkscape:zoom="27.16619" inkscape:cx="7.594211" inkscape:cy="8.990675" inkscape:window-x="0" inkscape:window-y="27" inkscape:window-width="1280" inkscape:window-height="960" inkscape:window-maximized="1" inkscape:current-layer="layer">
<inkscape:grid type="xygrid" id="grid" />
</sodipodi:namedview>
<metadata id="metadata1906">
<rdf:RDF>
<cc:Work rdf:about="">
<dc:format>image/svg+xml</dc:format>
<dc:type rdf:resource="http://purl.org/dc/dcmitype/StillImage" />
<cc:license rdf:resource="http://creativecommons.org/publicdomain/zero/1.0/" />
<dc:title>fe Editor new Icons proposal</dc:title>
<dc:date>13 Nov 2018</dc:date>
<dc:creator>
<cc:Agent>
<dc:title>Ramón Miranda</dc:title>
</cc:Agent>
</dc:creator>
<dc:rights>
<cc:Agent>
<dc:title>see the license tab</dc:title>
</cc:Agent>
</dc:rights>
<dc:subject>
<rdf:Bag>
<rdf:li>icon ui</rdf:li>
</rdf:Bag>
</dc:subject>
<dc:description>This is a little contribution with Inkscape Project
Ramon Miranda  www.ramonmiranda.com (design and SVG file)
Jabiertxo (SVG stuff to integrate them in UI)</dc:description>
<dc:publisher>
<cc:Agent>
<dc:title />
</cc:Agent>
</dc:publisher>
<dc:identifier />
<dc:source />
<dc:relation />
<dc:language>-</dc:language>
<dc:coverage />
<dc:contributor>
<cc:Agent>
<dc:title>Ramon Miranda
Jabier Arraiza</dc:title>
</cc:Agent>
</dc:contributor>
</cc:Work>
<cc:License rdf:about="http://creativecommons.org/publicdomain/zero/1.0/">
<cc:permits rdf:resource="http://creativecommons.org/ns#Reproduction" />
<cc:permits rdf:resource="http://creativecommons.org/ns#Distribution" />
<cc:permits rdf:resource="http://creativecommons.org/ns#DerivativeWorks" />
</cc:License>
</rdf:RDF>
</metadata>
<g inkscape:groupmode="layer" id="layer" inkscape:label="info">
<path id="rect22048" d="M 0,0 H 16 V 16 H 0 Z" style="opacity:0;fill:none" />
<path style="opacity:1;fill:#000000" d="m 3.070313,0.9472656 c -0.654299,0 -1.191407,0.5537514 -1.191407,1.2070314 V 13.96094 c 0,0.65328 0.535471,1.20898 1.191407,1.20898 h 9.335937 c 0.65593,0 1.18945,-0.55731 1.18945,-1.20898 V 13.5918 l 1.61914,-1.39258 -0.36132,-0.35938 C 14.58961,11.57593 13.78846,10.82987 13.5957,10.65039 V 2.154297 c 10e-6,-0.65168 -0.53515,-1.2070314 -1.18945,-1.2070314 z" id="path4934" />
<path style="opacity:1;fill:#ffffff" d="m 8.931641,3.919922 c -0.08296,-0.01028 -0.167602,-0.0088 -0.25,0.002 C 8.283826,3.973972 7.937171,4.261488 7.826172,4.650391 7.730567,4.98744 7.825424,5.38839 8.097656,5.582031 8.412425,5.80758 8.872844,5.789979 9.212891,5.574219 9.64911,5.297936 9.779155,4.718787 9.544922,4.304687 9.416402,4.077684 9.180512,3.950767 8.931641,3.919922 Z" id="path4930" />
<path style="opacity:1;fill:#ffffff" d="M 7.988281,6.195312 C 7.610721,6.229422 7.075456,6.340752 6.472656,6.839844 6.245797,7.027814 5.62927,7.61644 5.564453,7.888672 5.537716,7.999671 5.667053,8.137185 5.791016,8.058594 6.011394,7.919237 6.400246,7.280925 6.808594,7.060547 7.010337,6.951979 7.192001,7.015935 7.142578,7.269531 7.115679,7.408078 6.770287,8.203903 6.591797,8.673828 6.283105,9.486473 5.889877,10.2807 5.757812,11.14844 c -0.04456,0.29573 0.01295,0.64727 0.328125,0.78906 0.373509,0.17014 0.884535,0.0494 1.273438,-0.11914 C 8.064261,11.51291 8.959497,10.72814 9.185547,10.20312 9.241452,10.07349 9.116671,9.880582 9,9.964844 8.714805,10.17064 8.305005,10.81886 7.935547,10.96875 7.71922,11.05463 7.611657,10.91127 7.722656,10.57422 7.819072,10.2793 8.379533,8.80706 8.667969,8.019531 8.829201,7.574724 9.052104,7.054805 8.873047,6.603516 8.737093,6.260885 8.323791,6.164678 7.988281,6.195312 Z" id="path8690" />
</g>
</svg>
